{
  "violated_invariants": [
    [
      0,
      []
    ],
    [
      1,
      []
    ],
    [
      2,
      []
    ],
    [
      3,
      []
    ]
  ],
  "reached_states": [
    [
      0,
      [
        {
          "fact-type": "taxpayer",
          "value": "alice",
          "textual": "\"alice\":taxpayer"
        },
        {
          "fact-type": "taxpayer",
          "value": "bob",
          "textual": "\"bob\":taxpayer"
        },
        {
          "fact-type": "taxpayer",
          "value": "chloe",
          "textual": "\"chloe\":taxpayer"
        },
        {
          "fact-type": "inspector",
          "value": "inspector",
          "textual": "\"inspector\":inspector"
        },
        {
          "fact-type": "duty to pay",
          "arguments": [
            {
              "fact-type": "taxpayer",
              "value": "alice",
              "textual": "\"alice\":taxpayer"
            },
            {
              "fact-type": "inspector",
              "value": "inspector",
              "textual": "\"inspector\":inspector"
            }
          ],
          "textual": "(\"alice\":taxpayer,\"inspector\":inspector):duty to pay"
        },
        {
          "fact-type": "pay",
          "arguments": [
            {
              "fact-type": "taxpayer",
              "value": "alice",
              "textual": "\"alice\":taxpayer"
            },
            {
              "fact-type": "inspector",
              "value": "inspector",
              "textual": "\"inspector\":inspector"
            },
            {
              "fact-type": "payment amount",
              "value": 100,
              "textual": "100:payment amount"
            }
          ],
          "textual": "(\"alice\":taxpayer,\"inspector\":inspector,100:payment amount):pay"
        },
        {
          "fact-type": "pay",
          "arguments": [
            {
              "fact-type": "taxpayer",
              "value": "alice",
              "textual": "\"alice\":taxpayer"
            },
            {
              "fact-type": "inspector",
              "value": "inspector",
              "textual": "\"inspector\":inspector"
            },
            {
              "fact-type": "payment amount",
              "value": 200,
              "textual": "200:payment amount"
            }
          ],
          "textual": "(\"alice\":taxpayer,\"inspector\":inspector,200:payment amount):pay"
        },
        {
          "fact-type": "pay",
          "arguments": [
            {
              "fact-type": "taxpayer",
              "value": "alice",
              "textual": "\"alice\":taxpayer"
            },
            {
              "fact-type": "inspector",
              "value": "inspector",
              "textual": "\"inspector\":inspector"
            },
            {
              "fact-type": "payment amount",
              "value": 300,
              "textual": "300:payment amount"
            }
          ],
          "textual": "(\"alice\":taxpayer,\"inspector\":inspector,300:payment amount):pay"
        },
        {
          "fact-type": "pay",
          "arguments": [
            {
              "fact-type": "taxpayer",
              "value": "alice",
              "textual": "\"alice\":taxpayer"
            },
            {
              "fact-type": "inspector",
              "value": "inspector",
              "textual": "\"inspector\":inspector"
            },
            {
              "fact-type": "payment amount",
              "value": 400,
              "textual": "400:payment amount"
            }
          ],
          "textual": "(\"alice\":taxpayer,\"inspector\":inspector,400:payment amount):pay"
        },
        {
          "fact-type": "pay",
          "arguments": [
            {
              "fact-type": "taxpayer",
              "value": "alice",
              "textual": "\"alice\":taxpayer"
            },
            {
              "fact-type": "inspector",
              "value": "inspector",
              "textual": "\"inspector\":inspector"
            },
            {
              "fact-type": "payment amount",
              "value": 500,
              "textual": "500:payment amount"
            }
          ],
          "textual": "(\"alice\":taxpayer,\"inspector\":inspector,500:payment amount):pay"
        },
        {
          "fact-type": "debt",
          "arguments": [
            {
              "fact-type": "taxpayer",
              "value": "alice",
              "textual": "\"alice\":taxpayer"
            },
            {
              "fact-type": "debt amount",
              "value": 500,
              "textual": "500:debt amount"
            }
          ],
          "textual": "(\"alice\":taxpayer,500:debt amount):debt"
        },
        {
          "fact-type": "remaining debt",
          "arguments": [
            {
              "fact-type": "taxpayer",
              "value": "alice",
              "textual": "\"alice\":taxpayer"
            },
            {
              "fact-type": "debt amount",
              "value": 500,
              "textual": "500:debt amount"
            }
          ],
          "textual": "(\"alice\":taxpayer,500:debt amount):remaining debt"
        },
        {
          "fact-type": "duty to pay",
          "arguments": [
            {
              "fact-type": "taxpayer",
              "value": "bob",
              "textual": "\"bob\":taxpayer"
            },
            {
              "fact-type": "inspector",
              "value": "inspector",
              "textual": "\"inspector\":inspector"
            }
          ],
          "textual": "(\"bob\":taxpayer,\"inspector\":inspector):duty to pay"
        },
        {
          "fact-type": "pay",
          "arguments": [
            {
              "fact-type": "taxpayer",
              "value": "bob",
              "textual": "\"bob\":taxpayer"
            },
            {
              "fact-type": "inspector",
              "value": "inspector",
              "textual": "\"inspector\":inspector"
            },
            {
              "fact-type": "payment amount",
              "value": 100,
              "textual": "100:payment amount"
            }
          ],
          "textual": "(\"bob\":taxpayer,\"inspector\":inspector,100:payment amount):pay"
        },
        {
          "fact-type": "pay",
          "arguments": [
            {
              "fact-type": "taxpayer",
              "value": "bob",
              "textual": "\"bob\":taxpayer"
            },
            {
              "fact-type": "inspector",
              "value": "inspector",
              "textual": "\"inspector\":inspector"
            },
            {
              "fact-type": "payment amount",
              "value": 200,
              "textual": "200:payment amount"
            }
          ],
          "textual": "(\"bob\":taxpayer,\"inspector\":inspector,200:payment amount):pay"
        },
        {
          "fact-type": "pay",
          "arguments": [
            {
              "fact-type": "taxpayer",
              "value": "bob",
              "textual": "\"bob\":taxpayer"
            },
            {
              "fact-type": "inspector",
              "value": "inspector",
              "textual": "\"inspector\":inspector"
            },
            {
              "fact-type": "payment amount",
              "value": 300,
              "textual": "300:payment amount"
            }
          ],
          "textual": "(\"bob\":taxpayer,\"inspector\":inspector,300:payment amount):pay"
        },
        {
          "fact-type": "pay",
          "arguments": [
            {
              "fact-type": "taxpayer",
              "value": "bob",
              "textual": "\"bob\":taxpayer"
            },
            {
              "fact-type": "inspector",
              "value": "inspector",
              "textual": "\"inspector\":inspector"
            },
            {
              "fact-type": "payment amount",
              "value": 400,
              "textual": "400:payment amount"
            }
          ],
          "textual": "(\"bob\":taxpayer,\"inspector\":inspector,400:payment amount):pay"
        },
        {
          "fact-type": "pay",
          "arguments": [
            {
              "fact-type": "taxpayer",
              "value": "bob",
              "textual": "\"bob\":taxpayer"
            },
            {
              "fact-type": "inspector",
              "value": "inspector",
              "textual": "\"inspector\":inspector"
            },
            {
              "fact-type": "payment amount",
              "value": 500,
              "textual": "500:payment amount"
            }
          ],
          "textual": "(\"bob\":taxpayer,\"inspector\":inspector,500:payment amount):pay"
        },
        {
          "fact-type": "debt",
          "arguments": [
            {
              "fact-type": "taxpayer",
              "value": "bob",
              "textual": "\"bob\":taxpayer"
            },
            {
              "fact-type": "debt amount",
              "value": 300,
              "textual": "300:debt amount"
            }
          ],
          "textual": "(\"bob\":taxpayer,300:debt amount):debt"
        },
        {
          "fact-type": "remaining debt",
          "arguments": [
            {
              "fact-type": "taxpayer",
              "value": "bob",
              "textual": "\"bob\":taxpayer"
            },
            {
              "fact-type": "debt amount",
              "value": 300,
              "textual": "300:debt amount"
            }
          ],
          "textual": "(\"bob\":taxpayer,300:debt amount):remaining debt"
        },
        {
          "fact-type": "duty to pay",
          "arguments": [
            {
              "fact-type": "taxpayer",
              "value": "chloe",
              "textual": "\"chloe\":taxpayer"
            },
            {
              "fact-type": "inspector",
              "value": "inspector",
              "textual": "\"inspector\":inspector"
            }
          ],
          "textual": "(\"chloe\":taxpayer,\"inspector\":inspector):duty to pay"
        },
        {
          "fact-type": "pay",
          "arguments": [
            {
              "fact-type": "taxpayer",
              "value": "chloe",
              "textual": "\"chloe\":taxpayer"
            },
            {
              "fact-type": "inspector",
              "value": "inspector",
              "textual": "\"inspector\":inspector"
            },
            {
              "fact-type": "payment amount",
              "value": 100,
              "textual": "100:payment amount"
            }
          ],
          "textual": "(\"chloe\":taxpayer,\"inspector\":inspector,100:payment amount):pay"
        },
        {
          "fact-type": "pay",
          "arguments": [
            {
              "fact-type": "taxpayer",
              "value": "chloe",
              "textual": "\"chloe\":taxpayer"
            },
            {
              "fact-type": "inspector",
              "value": "inspector",
              "textual": "\"inspector\":inspector"
            },
            {
              "fact-type": "payment amount",
              "value": 200,
              "textual": "200:payment amount"
            }
          ],
          "textual": "(\"chloe\":taxpayer,\"inspector\":inspector,200:payment amount):pay"
        },
        {
          "fact-type": "pay",
          "arguments": [
            {
              "fact-type": "taxpayer",
              "value": "chloe",
              "textual": "\"chloe\":taxpayer"
            },
            {
              "fact-type": "inspector",
              "value": "inspector",
              "textual": "\"inspector\":inspector"
            },
            {
              "fact-type": "payment amount",
              "value": 300,
              "textual": "300:payment amount"
            }
          ],
          "textual": "(\"chloe\":taxpayer,\"inspector\":inspector,300:payment amount):pay"
        },
        {
          "fact-type": "pay",
          "arguments": [
            {
              "fact-type": "taxpayer",
              "value": "chloe",
              "textual": "\"chloe\":taxpayer"
            },
            {
              "fact-type": "inspector",
              "value": "inspector",
              "textual": "\"inspector\":inspector"
            },
            {
              "fact-type": "payment amount",
              "value": 400,
              "textual": "400:payment amount"
            }
          ],
          "textual": "(\"chloe\":taxpayer,\"inspector\":inspector,400:payment amount):pay"
        },
        {
          "fact-type": "pay",
          "arguments": [
            {
              "fact-type": "taxpayer",
              "value": "chloe",
              "textual": "\"chloe\":taxpayer"
            },
            {
              "fact-type": "inspector",
              "value": "inspector",
              "textual": "\"inspector\":inspector"
            },
            {
              "fact-type": "payment amount",
              "value": 500,
              "textual": "500:payment amount"
            }
          ],
          "textual": "(\"chloe\":taxpayer,\"inspector\":inspector,500:payment amount):pay"
        },
        {
          "fact-type": "debt",
          "arguments": [
            {
              "fact-type": "taxpayer",
              "value": "chloe",
              "textual": "\"chloe\":taxpayer"
            },
            {
              "fact-type": "debt amount",
              "value": 100,
              "textual": "100:debt amount"
            }
          ],
          "textual": "(\"chloe\":taxpayer,100:debt amount):debt"
        },
        {
          "fact-type": "remaining debt",
          "arguments": [
            {
              "fact-type": "taxpayer",
              "value": "chloe",
              "textual": "\"chloe\":taxpayer"
            },
            {
              "fact-type": "debt amount",
              "value": 100,
              "textual": "100:debt amount"
            }
          ],
          "textual": "(\"chloe\":taxpayer,100:debt amount):remaining debt"
        },
        {
          "fact-type": "verify payments",
          "arguments": [
            {
              "fact-type": "inspector",
              "value": "inspector",
              "textual": "\"inspector\":inspector"
            },
            {
              "fact-type": "taxpayer",
              "value": "alice",
              "textual": "\"alice\":taxpayer"
            }
          ],
          "textual": "(\"inspector\":inspector,\"alice\":taxpayer):verify payments"
        },
        {
          "fact-type": "verify payments",
          "arguments": [
            {
              "fact-type": "inspector",
              "value": "inspector",
              "textual": "\"inspector\":inspector"
            },
            {
              "fact-type": "taxpayer",
              "value": "bob",
              "textual": "\"bob\":taxpayer"
            }
          ],
          "textual": "(\"inspector\":inspector,\"bob\":taxpayer):verify payments"
        },
        {
          "fact-type": "verify payments",
          "arguments": [
            {
              "fact-type": "inspector",
              "value": "inspector",
              "textual": "\"inspector\":inspector"
            },
            {
              "fact-type": "taxpayer",
              "value": "chloe",
              "textual": "\"chloe\":taxpayer"
            }
          ],
          "textual": "(\"inspector\":inspector,\"chloe\":taxpayer):verify payments"
        }
      ]
    ],
    [
      1,
      [
        {
          "fact-type": "taxpayer",
          "value": "alice",
          "textual": "\"alice\":taxpayer"
        },
        {
          "fact-type": "taxpayer",
          "value": "bob",
          "textual": "\"bob\":taxpayer"
        },
        {
          "fact-type": "taxpayer",
          "value": "chloe",
          "textual": "\"chloe\":taxpayer"
        },
        {
          "fact-type": "inspector",
          "value": "inspector",
          "textual": "\"inspector\":inspector"
        },
        {
          "fact-type": "duty to pay",
          "arguments": [
            {
              "fact-type": "taxpayer",
              "value": "alice",
              "textual": "\"alice\":taxpayer"
            },
            {
              "fact-type": "inspector",
              "value": "inspector",
              "textual": "\"inspector\":inspector"
            }
          ],
          "textual": "(\"alice\":taxpayer,\"inspector\":inspector):duty to pay"
        },
        {
          "fact-type": "pay",
          "arguments": [
            {
              "fact-type": "taxpayer",
              "value": "alice",
              "textual": "\"alice\":taxpayer"
            },
            {
              "fact-type": "inspector",
              "value": "inspector",
              "textual": "\"inspector\":inspector"
            },
            {
              "fact-type": "payment amount",
              "value": 100,
              "textual": "100:payment amount"
            }
          ],
          "textual": "(\"alice\":taxpayer,\"inspector\":inspector,100:payment amount):pay"
        },
        {
          "fact-type": "pay",
          "arguments": [
            {
              "fact-type": "taxpayer",
              "value": "alice",
              "textual": "\"alice\":taxpayer"
            },
            {
              "fact-type": "inspector",
              "value": "inspector",
              "textual": "\"inspector\":inspector"
            },
            {
              "fact-type": "payment amount",
              "value": 200,
              "textual": "200:payment amount"
            }
          ],
          "textual": "(\"alice\":taxpayer,\"inspector\":inspector,200:payment amount):pay"
        },
        {
          "fact-type": "pay",
          "arguments": [
            {
              "fact-type": "taxpayer",
              "value": "alice",
              "textual": "\"alice\":taxpayer"
            },
            {
              "fact-type": "inspector",
              "value": "inspector",
              "textual": "\"inspector\":inspector"
            },
            {
              "fact-type": "payment amount",
              "value": 300,
              "textual": "300:payment amount"
            }
          ],
          "textual": "(\"alice\":taxpayer,\"inspector\":inspector,300:payment amount):pay"
        },
        {
          "fact-type": "pay",
          "arguments": [
            {
              "fact-type": "taxpayer",
              "value": "alice",
              "textual": "\"alice\":taxpayer"
            },
            {
              "fact-type": "inspector",
              "value": "inspector",
              "textual": "\"inspector\":inspector"
            },
            {
              "fact-type": "payment amount",
              "value": 400,
              "textual": "400:payment amount"
            }
          ],
          "textual": "(\"alice\":taxpayer,\"inspector\":inspector,400:payment amount):pay"
        },
        {
          "fact-type": "pay",
          "arguments": [
            {
              "fact-type": "taxpayer",
              "value": "alice",
              "textual": "\"alice\":taxpayer"
            },
            {
              "fact-type": "inspector",
              "value": "inspector",
              "textual": "\"inspector\":inspector"
            },
            {
              "fact-type": "payment amount",
              "value": 500,
              "textual": "500:payment amount"
            }
          ],
          "textual": "(\"alice\":taxpayer,\"inspector\":inspector,500:payment amount):pay"
        },
        {
          "fact-type": "payment",
          "arguments": [
            {
              "fact-type": "taxpayer",
              "value": "alice",
              "textual": "\"alice\":taxpayer"
            },
            {
              "fact-type": "payment amount",
              "value": 200,
              "textual": "200:payment amount"
            },
            {
              "fact-type": "payments counter",
              "value": 0,
              "textual": "0:payments counter"
            }
          ],
          "textual": "(\"alice\":taxpayer,200:payment amount,0:payments counter):payment"
        },
        {
          "fact-type": "remaining debt",
          "arguments": [
            {
              "fact-type": "taxpayer",
              "value": "alice",
              "textual": "\"alice\":taxpayer"
            },
            {
              "fact-type": "debt amount",
              "value": 300,
              "textual": "300:debt amount"
            }
          ],
          "textual": "(\"alice\":taxpayer,300:debt amount):remaining debt"
        },
        {
          "fact-type": "debt",
          "arguments": [
            {
              "fact-type": "taxpayer",
              "value": "alice",
              "textual": "\"alice\":taxpayer"
            },
            {
              "fact-type": "debt amount",
              "value": 500,
              "textual": "500:debt amount"
            }
          ],
          "textual": "(\"alice\":taxpayer,500:debt amount):debt"
        },
        {
          "fact-type": "duty to pay",
          "arguments": [
            {
              "fact-type": "taxpayer",
              "value": "bob",
              "textual": "\"bob\":taxpayer"
            },
            {
              "fact-type": "inspector",
              "value": "inspector",
              "textual": "\"inspector\":inspector"
            }
          ],
          "textual": "(\"bob\":taxpayer,\"inspector\":inspector):duty to pay"
        },
        {
          "fact-type": "pay",
          "arguments": [
            {
              "fact-type": "taxpayer",
              "value": "bob",
              "textual": "\"bob\":taxpayer"
            },
            {
              "fact-type": "inspector",
              "value": "inspector",
              "textual": "\"inspector\":inspector"
            },
            {
              "fact-type": "payment amount",
              "value": 100,
              "textual": "100:payment amount"
            }
          ],
          "textual": "(\"bob\":taxpayer,\"inspector\":inspector,100:payment amount):pay"
        },
        {
          "fact-type": "pay",
          "arguments": [
            {
              "fact-type": "taxpayer",
              "value": "bob",
              "textual": "\"bob\":taxpayer"
            },
            {
              "fact-type": "inspector",
              "value": "inspector",
              "textual": "\"inspector\":inspector"
            },
            {
              "fact-type": "payment amount",
              "value": 200,
              "textual": "200:payment amount"
            }
          ],
          "textual": "(\"bob\":taxpayer,\"inspector\":inspector,200:payment amount):pay"
        },
        {
          "fact-type": "pay",
          "arguments": [
            {
              "fact-type": "taxpayer",
              "value": "bob",
              "textual": "\"bob\":taxpayer"
            },
            {
              "fact-type": "inspector",
              "value": "inspector",
              "textual": "\"inspector\":inspector"
            },
            {
              "fact-type": "payment amount",
              "value": 300,
              "textual": "300:payment amount"
            }
          ],
          "textual": "(\"bob\":taxpayer,\"inspector\":inspector,300:payment amount):pay"
        },
        {
          "fact-type": "pay",
          "arguments": [
            {
              "fact-type": "taxpayer",
              "value": "bob",
              "textual": "\"bob\":taxpayer"
            },
            {
              "fact-type": "inspector",
              "value": "inspector",
              "textual": "\"inspector\":inspector"
            },
            {
              "fact-type": "payment amount",
              "value": 400,
              "textual": "400:payment amount"
            }
          ],
          "textual": "(\"bob\":taxpayer,\"inspector\":inspector,400:payment amount):pay"
        },
        {
          "fact-type": "pay",
          "arguments": [
            {
              "fact-type": "taxpayer",
              "value": "bob",
              "textual": "\"bob\":taxpayer"
            },
            {
              "fact-type": "inspector",
              "value": "inspector",
              "textual": "\"inspector\":inspector"
            },
            {
              "fact-type": "payment amount",
              "value": 500,
              "textual": "500:payment amount"
            }
          ],
          "textual": "(\"bob\":taxpayer,\"inspector\":inspector,500:payment amount):pay"
        },
        {
          "fact-type": "debt",
          "arguments": [
            {
              "fact-type": "taxpayer",
              "value": "bob",
              "textual": "\"bob\":taxpayer"
            },
            {
              "fact-type": "debt amount",
              "value": 300,
              "textual": "300:debt amount"
            }
          ],
          "textual": "(\"bob\":taxpayer,300:debt amount):debt"
        },
        {
          "fact-type": "remaining debt",
          "arguments": [
            {
              "fact-type": "taxpayer",
              "value": "bob",
              "textual": "\"bob\":taxpayer"
            },
            {
              "fact-type": "debt amount",
              "value": 300,
              "textual": "300:debt amount"
            }
          ],
          "textual": "(\"bob\":taxpayer,300:debt amount):remaining debt"
        },
        {
          "fact-type": "duty to pay",
          "arguments": [
            {
              "fact-type": "taxpayer",
              "value": "chloe",
              "textual": "\"chloe\":taxpayer"
            },
            {
              "fact-type": "inspector",
              "value": "inspector",
              "textual": "\"inspector\":inspector"
            }
          ],
          "textual": "(\"chloe\":taxpayer,\"inspector\":inspector):duty to pay"
        },
        {
          "fact-type": "pay",
          "arguments": [
            {
              "fact-type": "taxpayer",
              "value": "chloe",
              "textual": "\"chloe\":taxpayer"
            },
            {
              "fact-type": "inspector",
              "value": "inspector",
              "textual": "\"inspector\":inspector"
            },
            {
              "fact-type": "payment amount",
              "value": 100,
              "textual": "100:payment amount"
            }
          ],
          "textual": "(\"chloe\":taxpayer,\"inspector\":inspector,100:payment amount):pay"
        },
        {
          "fact-type": "pay",
          "arguments": [
            {
              "fact-type": "taxpayer",
              "value": "chloe",
              "textual": "\"chloe\":taxpayer"
            },
            {
              "fact-type": "inspector",
              "value": "inspector",
              "textual": "\"inspector\":inspector"
            },
            {
              "fact-type": "payment amount",
              "value": 200,
              "textual": "200:payment amount"
            }
          ],
          "textual": "(\"chloe\":taxpayer,\"inspector\":inspector,200:payment amount):pay"
        },
        {
          "fact-type": "pay",
          "arguments": [
            {
              "fact-type": "taxpayer",
              "value": "chloe",
              "textual": "\"chloe\":taxpayer"
            },
            {
              "fact-type": "inspector",
              "value": "inspector",
              "textual": "\"inspector\":inspector"
            },
            {
              "fact-type": "payment amount",
              "value": 300,
              "textual": "300:payment amount"
            }
          ],
          "textual": "(\"chloe\":taxpayer,\"inspector\":inspector,300:payment amount):pay"
        },
        {
          "fact-type": "pay",
          "arguments": [
            {
              "fact-type": "taxpayer",
              "value": "chloe",
              "textual": "\"chloe\":taxpayer"
            },
            {
              "fact-type": "inspector",
              "value": "inspector",
              "textual": "\"inspector\":inspector"
            },
            {
              "fact-type": "payment amount",
              "value": 400,
              "textual": "400:payment amount"
            }
          ],
          "textual": "(\"chloe\":taxpayer,\"inspector\":inspector,400:payment amount):pay"
        },
        {
          "fact-type": "pay",
          "arguments": [
            {
              "fact-type": "taxpayer",
              "value": "chloe",
              "textual": "\"chloe\":taxpayer"
            },
            {
              "fact-type": "inspector",
              "value": "inspector",
              "textual": "\"inspector\":inspector"
            },
            {
              "fact-type": "payment amount",
              "value": 500,
              "textual": "500:payment amount"
            }
          ],
          "textual": "(\"chloe\":taxpayer,\"inspector\":inspector,500:payment amount):pay"
        },
        {
          "fact-type": "debt",
          "arguments": [
            {
              "fact-type": "taxpayer",
              "value": "chloe",
              "textual": "\"chloe\":taxpayer"
            },
            {
              "fact-type": "debt amount",
              "value": 100,
              "textual": "100:debt amount"
            }
          ],
          "textual": "(\"chloe\":taxpayer,100:debt amount):debt"
        },
        {
          "fact-type": "remaining debt",
          "arguments": [
            {
              "fact-type": "taxpayer",
              "value": "chloe",
              "textual": "\"chloe\":taxpayer"
            },
            {
              "fact-type": "debt amount",
              "value": 100,
              "textual": "100:debt amount"
            }
          ],
          "textual": "(\"chloe\":taxpayer,100:debt amount):remaining debt"
        },
        {
          "fact-type": "verify payments",
          "arguments": [
            {
              "fact-type": "inspector",
              "value": "inspector",
              "textual": "\"inspector\":inspector"
            },
            {
              "fact-type": "taxpayer",
              "value": "alice",
              "textual": "\"alice\":taxpayer"
            }
          ],
          "textual": "(\"inspector\":inspector,\"alice\":taxpayer):verify payments"
        },
        {
          "fact-type": "verify payments",
          "arguments": [
            {
              "fact-type": "inspector",
              "value": "inspector",
              "textual": "\"inspector\":inspector"
            },
            {
              "fact-type": "taxpayer",
              "value": "bob",
              "textual": "\"bob\":taxpayer"
            }
          ],
          "textual": "(\"inspector\":inspector,\"bob\":taxpayer):verify payments"
        },
        {
          "fact-type": "verify payments",
          "arguments": [
            {
              "fact-type": "inspector",
              "value": "inspector",
              "textual": "\"inspector\":inspector"
            },
            {
              "fact-type": "taxpayer",
              "value": "chloe",
              "textual": "\"chloe\":taxpayer"
            }
          ],
          "textual": "(\"inspector\":inspector,\"chloe\":taxpayer):verify payments"
        }
      ]
    ],
    [
      2,
      [
        {
          "fact-type": "taxpayer",
          "value": "alice",
          "textual": "\"alice\":taxpayer"
        },
        {
          "fact-type": "taxpayer",
          "value": "bob",
          "textual": "\"bob\":taxpayer"
        },
        {
          "fact-type": "taxpayer",
          "value": "chloe",
          "textual": "\"chloe\":taxpayer"
        },
        {
          "fact-type": "inspector",
          "value": "inspector",
          "textual": "\"inspector\":inspector"
        },
        {
          "fact-type": "duty to pay",
          "arguments": [
            {
              "fact-type": "taxpayer",
              "value": "alice",
              "textual": "\"alice\":taxpayer"
            },
            {
              "fact-type": "inspector",
              "value": "inspector",
              "textual": "\"inspector\":inspector"
            }
          ],
          "textual": "(\"alice\":taxpayer,\"inspector\":inspector):duty to pay"
        },
        {
          "fact-type": "pay",
          "arguments": [
            {
              "fact-type": "taxpayer",
              "value": "alice",
              "textual": "\"alice\":taxpayer"
            },
            {
              "fact-type": "inspector",
              "value": "inspector",
              "textual": "\"inspector\":inspector"
            },
            {
              "fact-type": "payment amount",
              "value": 100,
              "textual": "100:payment amount"
            }
          ],
          "textual": "(\"alice\":taxpayer,\"inspector\":inspector,100:payment amount):pay"
        },
        {
          "fact-type": "pay",
          "arguments": [
            {
              "fact-type": "taxpayer",
              "value": "alice",
              "textual": "\"alice\":taxpayer"
            },
            {
              "fact-type": "inspector",
              "value": "inspector",
              "textual": "\"inspector\":inspector"
            },
            {
              "fact-type": "payment amount",
              "value": 200,
              "textual": "200:payment amount"
            }
          ],
          "textual": "(\"alice\":taxpayer,\"inspector\":inspector,200:payment amount):pay"
        },
        {
          "fact-type": "pay",
          "arguments": [
            {
              "fact-type": "taxpayer",
              "value": "alice",
              "textual": "\"alice\":taxpayer"
            },
            {
              "fact-type": "inspector",
              "value": "inspector",
              "textual": "\"inspector\":inspector"
            },
            {
              "fact-type": "payment amount",
              "value": 300,
              "textual": "300:payment amount"
            }
          ],
          "textual": "(\"alice\":taxpayer,\"inspector\":inspector,300:payment amount):pay"
        },
        {
          "fact-type": "pay",
          "arguments": [
            {
              "fact-type": "taxpayer",
              "value": "alice",
              "textual": "\"alice\":taxpayer"
            },
            {
              "fact-type": "inspector",
              "value": "inspector",
              "textual": "\"inspector\":inspector"
            },
            {
              "fact-type": "payment amount",
              "value": 400,
              "textual": "400:payment amount"
            }
          ],
          "textual": "(\"alice\":taxpayer,\"inspector\":inspector,400:payment amount):pay"
        },
        {
          "fact-type": "pay",
          "arguments": [
            {
              "fact-type": "taxpayer",
              "value": "alice",
              "textual": "\"alice\":taxpayer"
            },
            {
              "fact-type": "inspector",
              "value": "inspector",
              "textual": "\"inspector\":inspector"
            },
            {
              "fact-type": "payment amount",
              "value": 500,
              "textual": "500:payment amount"
            }
          ],
          "textual": "(\"alice\":taxpayer,\"inspector\":inspector,500:payment amount):pay"
        },
        {
          "fact-type": "payment",
          "arguments": [
            {
              "fact-type": "taxpayer",
              "value": "alice",
              "textual": "\"alice\":taxpayer"
            },
            {
              "fact-type": "payment amount",
              "value": 200,
              "textual": "200:payment amount"
            },
            {
              "fact-type": "payments counter",
              "value": 0,
              "textual": "0:payments counter"
            }
          ],
          "textual": "(\"alice\":taxpayer,200:payment amount,0:payments counter):payment"
        },
        {
          "fact-type": "remaining debt",
          "arguments": [
            {
              "fact-type": "taxpayer",
              "value": "alice",
              "textual": "\"alice\":taxpayer"
            },
            {
              "fact-type": "debt amount",
              "value": 300,
              "textual": "300:debt amount"
            }
          ],
          "textual": "(\"alice\":taxpayer,300:debt amount):remaining debt"
        },
        {
          "fact-type": "debt",
          "arguments": [
            {
              "fact-type": "taxpayer",
              "value": "alice",
              "textual": "\"alice\":taxpayer"
            },
            {
              "fact-type": "debt amount",
              "value": 500,
              "textual": "500:debt amount"
            }
          ],
          "textual": "(\"alice\":taxpayer,500:debt amount):debt"
        },
        {
          "fact-type": "duty to pay",
          "arguments": [
            {
              "fact-type": "taxpayer",
              "value": "bob",
              "textual": "\"bob\":taxpayer"
            },
            {
              "fact-type": "inspector",
              "value": "inspector",
              "textual": "\"inspector\":inspector"
            }
          ],
          "textual": "(\"bob\":taxpayer,\"inspector\":inspector):duty to pay"
        },
        {
          "fact-type": "pay",
          "arguments": [
            {
              "fact-type": "taxpayer",
              "value": "bob",
              "textual": "\"bob\":taxpayer"
            },
            {
              "fact-type": "inspector",
              "value": "inspector",
              "textual": "\"inspector\":inspector"
            },
            {
              "fact-type": "payment amount",
              "value": 100,
              "textual": "100:payment amount"
            }
          ],
          "textual": "(\"bob\":taxpayer,\"inspector\":inspector,100:payment amount):pay"
        },
        {
          "fact-type": "pay",
          "arguments": [
            {
              "fact-type": "taxpayer",
              "value": "bob",
              "textual": "\"bob\":taxpayer"
            },
            {
              "fact-type": "inspector",
              "value": "inspector",
              "textual": "\"inspector\":inspector"
            },
            {
              "fact-type": "payment amount",
              "value": 200,
              "textual": "200:payment amount"
            }
          ],
          "textual": "(\"bob\":taxpayer,\"inspector\":inspector,200:payment amount):pay"
        },
        {
          "fact-type": "pay",
          "arguments": [
            {
              "fact-type": "taxpayer",
              "value": "bob",
              "textual": "\"bob\":taxpayer"
            },
            {
              "fact-type": "inspector",
              "value": "inspector",
              "textual": "\"inspector\":inspector"
            },
            {
              "fact-type": "payment amount",
              "value": 300,
              "textual": "300:payment amount"
            }
          ],
          "textual": "(\"bob\":taxpayer,\"inspector\":inspector,300:payment amount):pay"
        },
        {
          "fact-type": "pay",
          "arguments": [
            {
              "fact-type": "taxpayer",
              "value": "bob",
              "textual": "\"bob\":taxpayer"
            },
            {
              "fact-type": "inspector",
              "value": "inspector",
              "textual": "\"inspector\":inspector"
            },
            {
              "fact-type": "payment amount",
              "value": 400,
              "textual": "400:payment amount"
            }
          ],
          "textual": "(\"bob\":taxpayer,\"inspector\":inspector,400:payment amount):pay"
        },
        {
          "fact-type": "pay",
          "arguments": [
            {
              "fact-type": "taxpayer",
              "value": "bob",
              "textual": "\"bob\":taxpayer"
            },
            {
              "fact-type": "inspector",
              "value": "inspector",
              "textual": "\"inspector\":inspector"
            },
            {
              "fact-type": "payment amount",
              "value": 500,
              "textual": "500:payment amount"
            }
          ],
          "textual": "(\"bob\":taxpayer,\"inspector\":inspector,500:payment amount):pay"
        },
        {
          "fact-type": "debt",
          "arguments": [
            {
              "fact-type": "taxpayer",
              "value": "bob",
              "textual": "\"bob\":taxpayer"
            },
            {
              "fact-type": "debt amount",
              "value": 300,
              "textual": "300:debt amount"
            }
          ],
          "textual": "(\"bob\":taxpayer,300:debt amount):debt"
        },
        {
          "fact-type": "remaining debt",
          "arguments": [
            {
              "fact-type": "taxpayer",
              "value": "bob",
              "textual": "\"bob\":taxpayer"
            },
            {
              "fact-type": "debt amount",
              "value": 300,
              "textual": "300:debt amount"
            }
          ],
          "textual": "(\"bob\":taxpayer,300:debt amount):remaining debt"
        },
        {
          "fact-type": "duty to pay",
          "arguments": [
            {
              "fact-type": "taxpayer",
              "value": "chloe",
              "textual": "\"chloe\":taxpayer"
            },
            {
              "fact-type": "inspector",
              "value": "inspector",
              "textual": "\"inspector\":inspector"
            }
          ],
          "textual": "(\"chloe\":taxpayer,\"inspector\":inspector):duty to pay"
        },
        {
          "fact-type": "pay",
          "arguments": [
            {
              "fact-type": "taxpayer",
              "value": "chloe",
              "textual": "\"chloe\":taxpayer"
            },
            {
              "fact-type": "inspector",
              "value": "inspector",
              "textual": "\"inspector\":inspector"
            },
            {
              "fact-type": "payment amount",
              "value": 100,
              "textual": "100:payment amount"
            }
          ],
          "textual": "(\"chloe\":taxpayer,\"inspector\":inspector,100:payment amount):pay"
        },
        {
          "fact-type": "pay",
          "arguments": [
            {
              "fact-type": "taxpayer",
              "value": "chloe",
              "textual": "\"chloe\":taxpayer"
            },
            {
              "fact-type": "inspector",
              "value": "inspector",
              "textual": "\"inspector\":inspector"
            },
            {
              "fact-type": "payment amount",
              "value": 200,
              "textual": "200:payment amount"
            }
          ],
          "textual": "(\"chloe\":taxpayer,\"inspector\":inspector,200:payment amount):pay"
        },
        {
          "fact-type": "pay",
          "arguments": [
            {
              "fact-type": "taxpayer",
              "value": "chloe",
              "textual": "\"chloe\":taxpayer"
            },
            {
              "fact-type": "inspector",
              "value": "inspector",
              "textual": "\"inspector\":inspector"
            },
            {
              "fact-type": "payment amount",
              "value": 300,
              "textual": "300:payment amount"
            }
          ],
          "textual": "(\"chloe\":taxpayer,\"inspector\":inspector,300:payment amount):pay"
        },
        {
          "fact-type": "pay",
          "arguments": [
            {
              "fact-type": "taxpayer",
              "value": "chloe",
              "textual": "\"chloe\":taxpayer"
            },
            {
              "fact-type": "inspector",
              "value": "inspector",
              "textual": "\"inspector\":inspector"
            },
            {
              "fact-type": "payment amount",
              "value": 400,
              "textual": "400:payment amount"
            }
          ],
          "textual": "(\"chloe\":taxpayer,\"inspector\":inspector,400:payment amount):pay"
        },
        {
          "fact-type": "pay",
          "arguments": [
            {
              "fact-type": "taxpayer",
              "value": "chloe",
              "textual": "\"chloe\":taxpayer"
            },
            {
              "fact-type": "inspector",
              "value": "inspector",
              "textual": "\"inspector\":inspector"
            },
            {
              "fact-type": "payment amount",
              "value": 500,
              "textual": "500:payment amount"
            }
          ],
          "textual": "(\"chloe\":taxpayer,\"inspector\":inspector,500:payment amount):pay"
        },
        {
          "fact-type": "remaining debt",
          "arguments": [
            {
              "fact-type": "taxpayer",
              "value": "chloe",
              "textual": "\"chloe\":taxpayer"
            },
            {
              "fact-type": "debt amount",
              "value": 0,
              "textual": "0:debt amount"
            }
          ],
          "textual": "(\"chloe\":taxpayer,0:debt amount):remaining debt"
        },
        {
          "fact-type": "debt",
          "arguments": [
            {
              "fact-type": "taxpayer",
              "value": "chloe",
              "textual": "\"chloe\":taxpayer"
            },
            {
              "fact-type": "debt amount",
              "value": 100,
              "textual": "100:debt amount"
            }
          ],
          "textual": "(\"chloe\":taxpayer,100:debt amount):debt"
        },
        {
          "fact-type": "payment",
          "arguments": [
            {
              "fact-type": "taxpayer",
              "value": "chloe",
              "textual": "\"chloe\":taxpayer"
            },
            {
              "fact-type": "payment amount",
              "value": 100,
              "textual": "100:payment amount"
            },
            {
              "fact-type": "payments counter",
              "value": 1,
              "textual": "1:payments counter"
            }
          ],
          "textual": "(\"chloe\":taxpayer,100:payment amount,1:payments counter):payment"
        },
        {
          "fact-type": "verify payments",
          "arguments": [
            {
              "fact-type": "inspector",
              "value": "inspector",
              "textual": "\"inspector\":inspector"
            },
            {
              "fact-type": "taxpayer",
              "value": "alice",
              "textual": "\"alice\":taxpayer"
            }
          ],
          "textual": "(\"inspector\":inspector,\"alice\":taxpayer):verify payments"
        },
        {
          "fact-type": "verify payments",
          "arguments": [
            {
              "fact-type": "inspector",
              "value": "inspector",
              "textual": "\"inspector\":inspector"
            },
            {
              "fact-type": "taxpayer",
              "value": "bob",
              "textual": "\"bob\":taxpayer"
            }
          ],
          "textual": "(\"inspector\":inspector,\"bob\":taxpayer):verify payments"
        },
        {
          "fact-type": "verify payments",
          "arguments": [
            {
              "fact-type": "inspector",
              "value": "inspector",
              "textual": "\"inspector\":inspector"
            },
            {
              "fact-type": "taxpayer",
              "value": "chloe",
              "textual": "\"chloe\":taxpayer"
            }
          ],
          "textual": "(\"inspector\":inspector,\"chloe\":taxpayer):verify payments"
        }
      ]
    ],
    [
      3,
      [
        {
          "fact-type": "taxpayer",
          "value": "alice",
          "textual": "\"alice\":taxpayer"
        },
        {
          "fact-type": "taxpayer",
          "value": "bob",
          "textual": "\"bob\":taxpayer"
        },
        {
          "fact-type": "taxpayer",
          "value": "chloe",
          "textual": "\"chloe\":taxpayer"
        },
        {
          "fact-type": "inspector",
          "value": "inspector",
          "textual": "\"inspector\":inspector"
        },
        {
          "fact-type": "duty to pay",
          "arguments": [
            {
              "fact-type": "taxpayer",
              "value": "alice",
              "textual": "\"alice\":taxpayer"
            },
            {
              "fact-type": "inspector",
              "value": "inspector",
              "textual": "\"inspector\":inspector"
            }
          ],
          "textual": "(\"alice\":taxpayer,\"inspector\":inspector):duty to pay"
        },
        {
          "fact-type": "pay",
          "arguments": [
            {
              "fact-type": "taxpayer",
              "value": "alice",
              "textual": "\"alice\":taxpayer"
            },
            {
              "fact-type": "inspector",
              "value": "inspector",
              "textual": "\"inspector\":inspector"
            },
            {
              "fact-type": "payment amount",
              "value": 100,
              "textual": "100:payment amount"
            }
          ],
          "textual": "(\"alice\":taxpayer,\"inspector\":inspector,100:payment amount):pay"
        },
        {
          "fact-type": "pay",
          "arguments": [
            {
              "fact-type": "taxpayer",
              "value": "alice",
              "textual": "\"alice\":taxpayer"
            },
            {
              "fact-type": "inspector",
              "value": "inspector",
              "textual": "\"inspector\":inspector"
            },
            {
              "fact-type": "payment amount",
              "value": 200,
              "textual": "200:payment amount"
            }
          ],
          "textual": "(\"alice\":taxpayer,\"inspector\":inspector,200:payment amount):pay"
        },
        {
          "fact-type": "pay",
          "arguments": [
            {
              "fact-type": "taxpayer",
              "value": "alice",
              "textual": "\"alice\":taxpayer"
            },
            {
              "fact-type": "inspector",
              "value": "inspector",
              "textual": "\"inspector\":inspector"
            },
            {
              "fact-type": "payment amount",
              "value": 300,
              "textual": "300:payment amount"
            }
          ],
          "textual": "(\"alice\":taxpayer,\"inspector\":inspector,300:payment amount):pay"
        },
        {
          "fact-type": "pay",
          "arguments": [
            {
              "fact-type": "taxpayer",
              "value": "alice",
              "textual": "\"alice\":taxpayer"
            },
            {
              "fact-type": "inspector",
              "value": "inspector",
              "textual": "\"inspector\":inspector"
            },
            {
              "fact-type": "payment amount",
              "value": 400,
              "textual": "400:payment amount"
            }
          ],
          "textual": "(\"alice\":taxpayer,\"inspector\":inspector,400:payment amount):pay"
        },
        {
          "fact-type": "pay",
          "arguments": [
            {
              "fact-type": "taxpayer",
              "value": "alice",
              "textual": "\"alice\":taxpayer"
            },
            {
              "fact-type": "inspector",
              "value": "inspector",
              "textual": "\"inspector\":inspector"
            },
            {
              "fact-type": "payment amount",
              "value": 500,
              "textual": "500:payment amount"
            }
          ],
          "textual": "(\"alice\":taxpayer,\"inspector\":inspector,500:payment amount):pay"
        },
        {
          "fact-type": "payment",
          "arguments": [
            {
              "fact-type": "taxpayer",
              "value": "alice",
              "textual": "\"alice\":taxpayer"
            },
            {
              "fact-type": "payment amount",
              "value": 100,
              "textual": "100:payment amount"
            },
            {
              "fact-type": "payments counter",
              "value": 2,
              "textual": "2:payments counter"
            }
          ],
          "textual": "(\"alice\":taxpayer,100:payment amount,2:payments counter):payment"
        },
        {
          "fact-type": "remaining debt",
          "arguments": [
            {
              "fact-type": "taxpayer",
              "value": "alice",
              "textual": "\"alice\":taxpayer"
            },
            {
              "fact-type": "debt amount",
              "value": 200,
              "textual": "200:debt amount"
            }
          ],
          "textual": "(\"alice\":taxpayer,200:debt amount):remaining debt"
        },
        {
          "fact-type": "payment",
          "arguments": [
            {
              "fact-type": "taxpayer",
              "value": "alice",
              "textual": "\"alice\":taxpayer"
            },
            {
              "fact-type": "payment amount",
              "value": 200,
              "textual": "200:payment amount"
            },
            {
              "fact-type": "payments counter",
              "value": 0,
              "textual": "0:payments counter"
            }
          ],
          "textual": "(\"alice\":taxpayer,200:payment amount,0:payments counter):payment"
        },
        {
          "fact-type": "debt",
          "arguments": [
            {
              "fact-type": "taxpayer",
              "value": "alice",
              "textual": "\"alice\":taxpayer"
            },
            {
              "fact-type": "debt amount",
              "value": 500,
              "textual": "500:debt amount"
            }
          ],
          "textual": "(\"alice\":taxpayer,500:debt amount):debt"
        },
        {
          "fact-type": "duty to pay",
          "arguments": [
            {
              "fact-type": "taxpayer",
              "value": "bob",
              "textual": "\"bob\":taxpayer"
            },
            {
              "fact-type": "inspector",
              "value": "inspector",
              "textual": "\"inspector\":inspector"
            }
          ],
          "textual": "(\"bob\":taxpayer,\"inspector\":inspector):duty to pay"
        },
        {
          "fact-type": "pay",
          "arguments": [
            {
              "fact-type": "taxpayer",
              "value": "bob",
              "textual": "\"bob\":taxpayer"
            },
            {
              "fact-type": "inspector",
              "value": "inspector",
              "textual": "\"inspector\":inspector"
            },
            {
              "fact-type": "payment amount",
              "value": 100,
              "textual": "100:payment amount"
            }
          ],
          "textual": "(\"bob\":taxpayer,\"inspector\":inspector,100:payment amount):pay"
        },
        {
          "fact-type": "pay",
          "arguments": [
            {
              "fact-type": "taxpayer",
              "value": "bob",
              "textual": "\"bob\":taxpayer"
            },
            {
              "fact-type": "inspector",
              "value": "inspector",
              "textual": "\"inspector\":inspector"
            },
            {
              "fact-type": "payment amount",
              "value": 200,
              "textual": "200:payment amount"
            }
          ],
          "textual": "(\"bob\":taxpayer,\"inspector\":inspector,200:payment amount):pay"
        },
        {
          "fact-type": "pay",
          "arguments": [
            {
              "fact-type": "taxpayer",
              "value": "bob",
              "textual": "\"bob\":taxpayer"
            },
            {
              "fact-type": "inspector",
              "value": "inspector",
              "textual": "\"inspector\":inspector"
            },
            {
              "fact-type": "payment amount",
              "value": 300,
              "textual": "300:payment amount"
            }
          ],
          "textual": "(\"bob\":taxpayer,\"inspector\":inspector,300:payment amount):pay"
        },
        {
          "fact-type": "pay",
          "arguments": [
            {
              "fact-type": "taxpayer",
              "value": "bob",
              "textual": "\"bob\":taxpayer"
            },
            {
              "fact-type": "inspector",
              "value": "inspector",
              "textual": "\"inspector\":inspector"
            },
            {
              "fact-type": "payment amount",
              "value": 400,
              "textual": "400:payment amount"
            }
          ],
          "textual": "(\"bob\":taxpayer,\"inspector\":inspector,400:payment amount):pay"
        },
        {
          "fact-type": "pay",
          "arguments": [
            {
              "fact-type": "taxpayer",
              "value": "bob",
              "textual": "\"bob\":taxpayer"
            },
            {
              "fact-type": "inspector",
              "value": "inspector",
              "textual": "\"inspector\":inspector"
            },
            {
              "fact-type": "payment amount",
              "value": 500,
              "textual": "500:payment amount"
            }
          ],
          "textual": "(\"bob\":taxpayer,\"inspector\":inspector,500:payment amount):pay"
        },
        {
          "fact-type": "debt",
          "arguments": [
            {
              "fact-type": "taxpayer",
              "value": "bob",
              "textual": "\"bob\":taxpayer"
            },
            {
              "fact-type": "debt amount",
              "value": 300,
              "textual": "300:debt amount"
            }
          ],
          "textual": "(\"bob\":taxpayer,300:debt amount):debt"
        },
        {
          "fact-type": "remaining debt",
          "arguments": [
            {
              "fact-type": "taxpayer",
              "value": "bob",
              "textual": "\"bob\":taxpayer"
            },
            {
              "fact-type": "debt amount",
              "value": 300,
              "textual": "300:debt amount"
            }
          ],
          "textual": "(\"bob\":taxpayer,300:debt amount):remaining debt"
        },
        {
          "fact-type": "duty to pay",
          "arguments": [
            {
              "fact-type": "taxpayer",
              "value": "chloe",
              "textual": "\"chloe\":taxpayer"
            },
            {
              "fact-type": "inspector",
              "value": "inspector",
              "textual": "\"inspector\":inspector"
            }
          ],
          "textual": "(\"chloe\":taxpayer,\"inspector\":inspector):duty to pay"
        },
        {
          "fact-type": "pay",
          "arguments": [
            {
              "fact-type": "taxpayer",
              "value": "chloe",
              "textual": "\"chloe\":taxpayer"
            },
            {
              "fact-type": "inspector",
              "value": "inspector",
              "textual": "\"inspector\":inspector"
            },
            {
              "fact-type": "payment amount",
              "value": 100,
              "textual": "100:payment amount"
            }
          ],
          "textual": "(\"chloe\":taxpayer,\"inspector\":inspector,100:payment amount):pay"
        },
        {
          "fact-type": "pay",
          "arguments": [
            {
              "fact-type": "taxpayer",
              "value": "chloe",
              "textual": "\"chloe\":taxpayer"
            },
            {
              "fact-type": "inspector",
              "value": "inspector",
              "textual": "\"inspector\":inspector"
            },
            {
              "fact-type": "payment amount",
              "value": 200,
              "textual": "200:payment amount"
            }
          ],
          "textual": "(\"chloe\":taxpayer,\"inspector\":inspector,200:payment amount):pay"
        },
        {
          "fact-type": "pay",
          "arguments": [
            {
              "fact-type": "taxpayer",
              "value": "chloe",
              "textual": "\"chloe\":taxpayer"
            },
            {
              "fact-type": "inspector",
              "value": "inspector",
              "textual": "\"inspector\":inspector"
            },
            {
              "fact-type": "payment amount",
              "value": 300,
              "textual": "300:payment amount"
            }
          ],
          "textual": "(\"chloe\":taxpayer,\"inspector\":inspector,300:payment amount):pay"
        },
        {
          "fact-type": "pay",
          "arguments": [
            {
              "fact-type": "taxpayer",
              "value": "chloe",
              "textual": "\"chloe\":taxpayer"
            },
            {
              "fact-type": "inspector",
              "value": "inspector",
              "textual": "\"inspector\":inspector"
            },
            {
              "fact-type": "payment amount",
              "value": 400,
              "textual": "400:payment amount"
            }
          ],
          "textual": "(\"chloe\":taxpayer,\"inspector\":inspector,400:payment amount):pay"
        },
        {
          "fact-type": "pay",
          "arguments": [
            {
              "fact-type": "taxpayer",
              "value": "chloe",
              "textual": "\"chloe\":taxpayer"
            },
            {
              "fact-type": "inspector",
              "value": "inspector",
              "textual": "\"inspector\":inspector"
            },
            {
              "fact-type": "payment amount",
              "value": 500,
              "textual": "500:payment amount"
            }
          ],
          "textual": "(\"chloe\":taxpayer,\"inspector\":inspector,500:payment amount):pay"
        },
        {
          "fact-type": "remaining debt",
          "arguments": [
            {
              "fact-type": "taxpayer",
              "value": "chloe",
              "textual": "\"chloe\":taxpayer"
            },
            {
              "fact-type": "debt amount",
              "value": 0,
              "textual": "0:debt amount"
            }
          ],
          "textual": "(\"chloe\":taxpayer,0:debt amount):remaining debt"
        },
        {
          "fact-type": "debt",
          "arguments": [
            {
              "fact-type": "taxpayer",
              "value": "chloe",
              "textual": "\"chloe\":taxpayer"
            },
            {
              "fact-type": "debt amount",
              "value": 100,
              "textual": "100:debt amount"
            }
          ],
          "textual": "(\"chloe\":taxpayer,100:debt amount):debt"
        },
        {
          "fact-type": "payment",
          "arguments": [
            {
              "fact-type": "taxpayer",
              "value": "chloe",
              "textual": "\"chloe\":taxpayer"
            },
            {
              "fact-type": "payment amount",
              "value": 100,
              "textual": "100:payment amount"
            },
            {
              "fact-type": "payments counter",
              "value": 1,
              "textual": "1:payments counter"
            }
          ],
          "textual": "(\"chloe\":taxpayer,100:payment amount,1:payments counter):payment"
        },
        {
          "fact-type": "verify payments",
          "arguments": [
            {
              "fact-type": "inspector",
              "value": "inspector",
              "textual": "\"inspector\":inspector"
            },
            {
              "fact-type": "taxpayer",
              "value": "alice",
              "textual": "\"alice\":taxpayer"
            }
          ],
          "textual": "(\"inspector\":inspector,\"alice\":taxpayer):verify payments"
        },
        {
          "fact-type": "verify payments",
          "arguments": [
            {
              "fact-type": "inspector",
              "value": "inspector",
              "textual": "\"inspector\":inspector"
            },
            {
              "fact-type": "taxpayer",
              "value": "bob",
              "textual": "\"bob\":taxpayer"
            }
          ],
          "textual": "(\"inspector\":inspector,\"bob\":taxpayer):verify payments"
        },
        {
          "fact-type": "verify payments",
          "arguments": [
            {
              "fact-type": "inspector",
              "value": "inspector",
              "textual": "\"inspector\":inspector"
            },
            {
              "fact-type": "taxpayer",
              "value": "chloe",
              "textual": "\"chloe\":taxpayer"
            }
          ],
          "textual": "(\"inspector\":inspector,\"chloe\":taxpayer):verify payments"
        }
      ]
    ]
  ],
  "violated_duties": [
    [
      0,
      []
    ],
    [
      1,
      []
    ],
    [
      2,
      []
    ],
    [
      3,
      []
    ]
  ],
  "alternative_actions": [],
  "present_powers": [
    [
      0,
      [
        {
          "fact-type": "pay",
          "arguments": [
            {
              "fact-type": "taxpayer",
              "value": "chloe",
              "textual": "\"chloe\":taxpayer"
            },
            {
              "fact-type": "inspector",
              "value": "inspector",
              "textual": "\"inspector\":inspector"
            },
            {
              "fact-type": "payment amount",
              "value": 100,
              "textual": "100:payment amount"
            }
          ],
          "textual": "(\"chloe\":taxpayer,\"inspector\":inspector,100:payment amount):pay"
        },
        {
          "fact-type": "pay",
          "arguments": [
            {
              "fact-type": "taxpayer",
              "value": "bob",
              "textual": "\"bob\":taxpayer"
            },
            {
              "fact-type": "inspector",
              "value": "inspector",
              "textual": "\"inspector\":inspector"
            },
            {
              "fact-type": "payment amount",
              "value": 300,
              "textual": "300:payment amount"
            }
          ],
          "textual": "(\"bob\":taxpayer,\"inspector\":inspector,300:payment amount):pay"
        },
        {
          "fact-type": "pay",
          "arguments": [
            {
              "fact-type": "taxpayer",
              "value": "bob",
              "textual": "\"bob\":taxpayer"
            },
            {
              "fact-type": "inspector",
              "value": "inspector",
              "textual": "\"inspector\":inspector"
            },
            {
              "fact-type": "payment amount",
              "value": 200,
              "textual": "200:payment amount"
            }
          ],
          "textual": "(\"bob\":taxpayer,\"inspector\":inspector,200:payment amount):pay"
        },
        {
          "fact-type": "pay",
          "arguments": [
            {
              "fact-type": "taxpayer",
              "value": "bob",
              "textual": "\"bob\":taxpayer"
            },
            {
              "fact-type": "inspector",
              "value": "inspector",
              "textual": "\"inspector\":inspector"
            },
            {
              "fact-type": "payment amount",
              "value": 100,
              "textual": "100:payment amount"
            }
          ],
          "textual": "(\"bob\":taxpayer,\"inspector\":inspector,100:payment amount):pay"
        },
        {
          "fact-type": "pay",
          "arguments": [
            {
              "fact-type": "taxpayer",
              "value": "alice",
              "textual": "\"alice\":taxpayer"
            },
            {
              "fact-type": "inspector",
              "value": "inspector",
              "textual": "\"inspector\":inspector"
            },
            {
              "fact-type": "payment amount",
              "value": 500,
              "textual": "500:payment amount"
            }
          ],
          "textual": "(\"alice\":taxpayer,\"inspector\":inspector,500:payment amount):pay"
        },
        {
          "fact-type": "pay",
          "arguments": [
            {
              "fact-type": "taxpayer",
              "value": "alice",
              "textual": "\"alice\":taxpayer"
            },
            {
              "fact-type": "inspector",
              "value": "inspector",
              "textual": "\"inspector\":inspector"
            },
            {
              "fact-type": "payment amount",
              "value": 400,
              "textual": "400:payment amount"
            }
          ],
          "textual": "(\"alice\":taxpayer,\"inspector\":inspector,400:payment amount):pay"
        },
        {
          "fact-type": "pay",
          "arguments": [
            {
              "fact-type": "taxpayer",
              "value": "alice",
              "textual": "\"alice\":taxpayer"
            },
            {
              "fact-type": "inspector",
              "value": "inspector",
              "textual": "\"inspector\":inspector"
            },
            {
              "fact-type": "payment amount",
              "value": 300,
              "textual": "300:payment amount"
            }
          ],
          "textual": "(\"alice\":taxpayer,\"inspector\":inspector,300:payment amount):pay"
        },
        {
          "fact-type": "pay",
          "arguments": [
            {
              "fact-type": "taxpayer",
              "value": "alice",
              "textual": "\"alice\":taxpayer"
            },
            {
              "fact-type": "inspector",
              "value": "inspector",
              "textual": "\"inspector\":inspector"
            },
            {
              "fact-type": "payment amount",
              "value": 200,
              "textual": "200:payment amount"
            }
          ],
          "textual": "(\"alice\":taxpayer,\"inspector\":inspector,200:payment amount):pay"
        },
        {
          "fact-type": "pay",
          "arguments": [
            {
              "fact-type": "taxpayer",
              "value": "alice",
              "textual": "\"alice\":taxpayer"
            },
            {
              "fact-type": "inspector",
              "value": "inspector",
              "textual": "\"inspector\":inspector"
            },
            {
              "fact-type": "payment amount",
              "value": 100,
              "textual": "100:payment amount"
            }
          ],
          "textual": "(\"alice\":taxpayer,\"inspector\":inspector,100:payment amount):pay"
        }
      ]
    ],
    [
      1,
      [
        {
          "fact-type": "pay",
          "arguments": [
            {
              "fact-type": "taxpayer",
              "value": "chloe",
              "textual": "\"chloe\":taxpayer"
            },
            {
              "fact-type": "inspector",
              "value": "inspector",
              "textual": "\"inspector\":inspector"
            },
            {
              "fact-type": "payment amount",
              "value": 100,
              "textual": "100:payment amount"
            }
          ],
          "textual": "(\"chloe\":taxpayer,\"inspector\":inspector,100:payment amount):pay"
        },
        {
          "fact-type": "pay",
          "arguments": [
            {
              "fact-type": "taxpayer",
              "value": "bob",
              "textual": "\"bob\":taxpayer"
            },
            {
              "fact-type": "inspector",
              "value": "inspector",
              "textual": "\"inspector\":inspector"
            },
            {
              "fact-type": "payment amount",
              "value": 300,
              "textual": "300:payment amount"
            }
          ],
          "textual": "(\"bob\":taxpayer,\"inspector\":inspector,300:payment amount):pay"
        },
        {
          "fact-type": "pay",
          "arguments": [
            {
              "fact-type": "taxpayer",
              "value": "bob",
              "textual": "\"bob\":taxpayer"
            },
            {
              "fact-type": "inspector",
              "value": "inspector",
              "textual": "\"inspector\":inspector"
            },
            {
              "fact-type": "payment amount",
              "value": 200,
              "textual": "200:payment amount"
            }
          ],
          "textual": "(\"bob\":taxpayer,\"inspector\":inspector,200:payment amount):pay"
        },
        {
          "fact-type": "pay",
          "arguments": [
            {
              "fact-type": "taxpayer",
              "value": "bob",
              "textual": "\"bob\":taxpayer"
            },
            {
              "fact-type": "inspector",
              "value": "inspector",
              "textual": "\"inspector\":inspector"
            },
            {
              "fact-type": "payment amount",
              "value": 100,
              "textual": "100:payment amount"
            }
          ],
          "textual": "(\"bob\":taxpayer,\"inspector\":inspector,100:payment amount):pay"
        },
        {
          "fact-type": "pay",
          "arguments": [
            {
              "fact-type": "taxpayer",
              "value": "alice",
              "textual": "\"alice\":taxpayer"
            },
            {
              "fact-type": "inspector",
              "value": "inspector",
              "textual": "\"inspector\":inspector"
            },
            {
              "fact-type": "payment amount",
              "value": 300,
              "textual": "300:payment amount"
            }
          ],
          "textual": "(\"alice\":taxpayer,\"inspector\":inspector,300:payment amount):pay"
        },
        {
          "fact-type": "pay",
          "arguments": [
            {
              "fact-type": "taxpayer",
              "value": "alice",
              "textual": "\"alice\":taxpayer"
            },
            {
              "fact-type": "inspector",
              "value": "inspector",
              "textual": "\"inspector\":inspector"
            },
            {
              "fact-type": "payment amount",
              "value": 200,
              "textual": "200:payment amount"
            }
          ],
          "textual": "(\"alice\":taxpayer,\"inspector\":inspector,200:payment amount):pay"
        },
        {
          "fact-type": "pay",
          "arguments": [
            {
              "fact-type": "taxpayer",
              "value": "alice",
              "textual": "\"alice\":taxpayer"
            },
            {
              "fact-type": "inspector",
              "value": "inspector",
              "textual": "\"inspector\":inspector"
            },
            {
              "fact-type": "payment amount",
              "value": 100,
              "textual": "100:payment amount"
            }
          ],
          "textual": "(\"alice\":taxpayer,\"inspector\":inspector,100:payment amount):pay"
        }
      ]
    ],
    [
      2,
      [
        {
          "fact-type": "verify payments",
          "arguments": [
            {
              "fact-type": "inspector",
              "value": "inspector",
              "textual": "\"inspector\":inspector"
            },
            {
              "fact-type": "taxpayer",
              "value": "chloe",
              "textual": "\"chloe\":taxpayer"
            }
          ],
          "textual": "(\"inspector\":inspector,\"chloe\":taxpayer):verify payments"
        },
        {
          "fact-type": "pay",
          "arguments": [
            {
              "fact-type": "taxpayer",
              "value": "bob",
              "textual": "\"bob\":taxpayer"
            },
            {
              "fact-type": "inspector",
              "value": "inspector",
              "textual": "\"inspector\":inspector"
            },
            {
              "fact-type": "payment amount",
              "value": 300,
              "textual": "300:payment amount"
            }
          ],
          "textual": "(\"bob\":taxpayer,\"inspector\":inspector,300:payment amount):pay"
        },
        {
          "fact-type": "pay",
          "arguments": [
            {
              "fact-type": "taxpayer",
              "value": "bob",
              "textual": "\"bob\":taxpayer"
            },
            {
              "fact-type": "inspector",
              "value": "inspector",
              "textual": "\"inspector\":inspector"
            },
            {
              "fact-type": "payment amount",
              "value": 200,
              "textual": "200:payment amount"
            }
          ],
          "textual": "(\"bob\":taxpayer,\"inspector\":inspector,200:payment amount):pay"
        },
        {
          "fact-type": "pay",
          "arguments": [
            {
              "fact-type": "taxpayer",
              "value": "bob",
              "textual": "\"bob\":taxpayer"
            },
            {
              "fact-type": "inspector",
              "value": "inspector",
              "textual": "\"inspector\":inspector"
            },
            {
              "fact-type": "payment amount",
              "value": 100,
              "textual": "100:payment amount"
            }
          ],
          "textual": "(\"bob\":taxpayer,\"inspector\":inspector,100:payment amount):pay"
        },
        {
          "fact-type": "pay",
          "arguments": [
            {
              "fact-type": "taxpayer",
              "value": "alice",
              "textual": "\"alice\":taxpayer"
            },
            {
              "fact-type": "inspector",
              "value": "inspector",
              "textual": "\"inspector\":inspector"
            },
            {
              "fact-type": "payment amount",
              "value": 300,
              "textual": "300:payment amount"
            }
          ],
          "textual": "(\"alice\":taxpayer,\"inspector\":inspector,300:payment amount):pay"
        },
        {
          "fact-type": "pay",
          "arguments": [
            {
              "fact-type": "taxpayer",
              "value": "alice",
              "textual": "\"alice\":taxpayer"
            },
            {
              "fact-type": "inspector",
              "value": "inspector",
              "textual": "\"inspector\":inspector"
            },
            {
              "fact-type": "payment amount",
              "value": 200,
              "textual": "200:payment amount"
            }
          ],
          "textual": "(\"alice\":taxpayer,\"inspector\":inspector,200:payment amount):pay"
        },
        {
          "fact-type": "pay",
          "arguments": [
            {
              "fact-type": "taxpayer",
              "value": "alice",
              "textual": "\"alice\":taxpayer"
            },
            {
              "fact-type": "inspector",
              "value": "inspector",
              "textual": "\"inspector\":inspector"
            },
            {
              "fact-type": "payment amount",
              "value": 100,
              "textual": "100:payment amount"
            }
          ],
          "textual": "(\"alice\":taxpayer,\"inspector\":inspector,100:payment amount):pay"
        }
      ]
    ],
    [
      3,
      [
        {
          "fact-type": "verify payments",
          "arguments": [
            {
              "fact-type": "inspector",
              "value": "inspector",
              "textual": "\"inspector\":inspector"
            },
            {
              "fact-type": "taxpayer",
              "value": "chloe",
              "textual": "\"chloe\":taxpayer"
            }
          ],
          "textual": "(\"inspector\":inspector,\"chloe\":taxpayer):verify payments"
        },
        {
          "fact-type": "pay",
          "arguments": [
            {
              "fact-type": "taxpayer",
              "value": "bob",
              "textual": "\"bob\":taxpayer"
            },
            {
              "fact-type": "inspector",
              "value": "inspector",
              "textual": "\"inspector\":inspector"
            },
            {
              "fact-type": "payment amount",
              "value": 300,
              "textual": "300:payment amount"
            }
          ],
          "textual": "(\"bob\":taxpayer,\"inspector\":inspector,300:payment amount):pay"
        },
        {
          "fact-type": "pay",
          "arguments": [
            {
              "fact-type": "taxpayer",
              "value": "bob",
              "textual": "\"bob\":taxpayer"
            },
            {
              "fact-type": "inspector",
              "value": "inspector",
              "textual": "\"inspector\":inspector"
            },
            {
              "fact-type": "payment amount",
              "value": 200,
              "textual": "200:payment amount"
            }
          ],
          "textual": "(\"bob\":taxpayer,\"inspector\":inspector,200:payment amount):pay"
        },
        {
          "fact-type": "pay",
          "arguments": [
            {
              "fact-type": "taxpayer",
              "value": "bob",
              "textual": "\"bob\":taxpayer"
            },
            {
              "fact-type": "inspector",
              "value": "inspector",
              "textual": "\"inspector\":inspector"
            },
            {
              "fact-type": "payment amount",
              "value": 100,
              "textual": "100:payment amount"
            }
          ],
          "textual": "(\"bob\":taxpayer,\"inspector\":inspector,100:payment amount):pay"
        },
        {
          "fact-type": "pay",
          "arguments": [
            {
              "fact-type": "taxpayer",
              "value": "alice",
              "textual": "\"alice\":taxpayer"
            },
            {
              "fact-type": "inspector",
              "value": "inspector",
              "textual": "\"inspector\":inspector"
            },
            {
              "fact-type": "payment amount",
              "value": 200,
              "textual": "200:payment amount"
            }
          ],
          "textual": "(\"alice\":taxpayer,\"inspector\":inspector,200:payment amount):pay"
        },
        {
          "fact-type": "pay",
          "arguments": [
            {
              "fact-type": "taxpayer",
              "value": "alice",
              "textual": "\"alice\":taxpayer"
            },
            {
              "fact-type": "inspector",
              "value": "inspector",
              "textual": "\"inspector\":inspector"
            },
            {
              "fact-type": "payment amount",
              "value": 100,
              "textual": "100:payment amount"
            }
          ],
          "textual": "(\"alice\":taxpayer,\"inspector\":inspector,100:payment amount):pay"
        }
      ]
    ]
  ],
  "success": false,
  "current_state": 3,
  "exec_actions": [
    [
      1,
      {
        "creates": [
          {
            "fact-type": "payment",
            "arguments": [
              {
                "fact-type": "taxpayer",
                "value": "alice",
                "textual": "\"alice\":taxpayer"
              },
              {
                "fact-type": "payment amount",
                "value": 200,
                "textual": "200:payment amount"
              },
              {
                "fact-type": "payments counter",
                "value": 0,
                "textual": "0:payments counter"
              }
            ],
            "textual": "(\"alice\":taxpayer,200:payment amount,0:payments counter):payment"
          }
        ],
        "terminates": [],
        "instance": {
          "fact-type": "pay",
          "arguments": [
            {
              "fact-type": "taxpayer",
              "value": "alice",
              "textual": "\"alice\":taxpayer"
            },
            {
              "fact-type": "inspector",
              "value": "inspector",
              "textual": "\"inspector\":inspector"
            },
            {
              "fact-type": "payment amount",
              "value": 200,
              "textual": "200:payment amount"
            }
          ],
          "textual": "(\"alice\":taxpayer,\"inspector\":inspector,200:payment amount):pay"
        }
      }
    ],
    [
      2,
      {
        "creates": [
          {
            "fact-type": "payment",
            "arguments": [
              {
                "fact-type": "taxpayer",
                "value": "chloe",
                "textual": "\"chloe\":taxpayer"
              },
              {
                "fact-type": "payment amount",
                "value": 100,
                "textual": "100:payment amount"
              },
              {
                "fact-type": "payments counter",
                "value": 1,
                "textual": "1:payments counter"
              }
            ],
            "textual": "(\"chloe\":taxpayer,100:payment amount,1:payments counter):payment"
          }
        ],
        "terminates": [],
        "instance": {
          "fact-type": "pay",
          "arguments": [
            {
              "fact-type": "taxpayer",
              "value": "chloe",
              "textual": "\"chloe\":taxpayer"
            },
            {
              "fact-type": "inspector",
              "value": "inspector",
              "textual": "\"inspector\":inspector"
            },
            {
              "fact-type": "payment amount",
              "value": 100,
              "textual": "100:payment amount"
            }
          ],
          "textual": "(\"chloe\":taxpayer,\"inspector\":inspector,100:payment amount):pay"
        }
      }
    ],
    [
      3,
      {
        "creates": [
          {
            "fact-type": "payment",
            "arguments": [
              {
                "fact-type": "taxpayer",
                "value": "alice",
                "textual": "\"alice\":taxpayer"
              },
              {
                "fact-type": "payment amount",
                "value": 100,
                "textual": "100:payment amount"
              },
              {
                "fact-type": "payments counter",
                "value": 2,
                "textual": "2:payments counter"
              }
            ],
            "textual": "(\"alice\":taxpayer,100:payment amount,2:payments counter):payment"
          }
        ],
        "terminates": [],
        "instance": {
          "fact-type": "pay",
          "arguments": [
            {
              "fact-type": "taxpayer",
              "value": "alice",
              "textual": "\"alice\":taxpayer"
            },
            {
              "fact-type": "inspector",
              "value": "inspector",
              "textual": "\"inspector\":inspector"
            },
            {
              "fact-type": "payment amount",
              "value": 100,
              "textual": "100:payment amount"
            }
          ],
          "textual": "(\"alice\":taxpayer,\"inspector\":inspector,100:payment amount):pay"
        }
      }
    ]
  ],
  "errors": [
    "Non-compliant action at step 4"
  ],
  "present_duties": [
    [
      0,
      [
        [
          {
            "fact-type": "duty to pay",
            "arguments": [
              {
                "fact-type": "taxpayer",
                "value": "chloe",
                "textual": "\"chloe\":taxpayer"
              },
              {
                "fact-type": "inspector",
                "value": "inspector",
                "textual": "\"inspector\":inspector"
              }
            ],
            "textual": "(\"chloe\":taxpayer,\"inspector\":inspector):duty to pay"
          },
          false
        ],
        [
          {
            "fact-type": "duty to pay",
            "arguments": [
              {
                "fact-type": "taxpayer",
                "value": "bob",
                "textual": "\"bob\":taxpayer"
              },
              {
                "fact-type": "inspector",
                "value": "inspector",
                "textual": "\"inspector\":inspector"
              }
            ],
            "textual": "(\"bob\":taxpayer,\"inspector\":inspector):duty to pay"
          },
          false
        ],
        [
          {
            "fact-type": "duty to pay",
            "arguments": [
              {
                "fact-type": "taxpayer",
                "value": "alice",
                "textual": "\"alice\":taxpayer"
              },
              {
                "fact-type": "inspector",
                "value": "inspector",
                "textual": "\"inspector\":inspector"
              }
            ],
            "textual": "(\"alice\":taxpayer,\"inspector\":inspector):duty to pay"
          },
          false
        ]
      ]
    ],
    [
      1,
      [
        [
          {
            "fact-type": "duty to pay",
            "arguments": [
              {
                "fact-type": "taxpayer",
                "value": "chloe",
                "textual": "\"chloe\":taxpayer"
              },
              {
                "fact-type": "inspector",
                "value": "inspector",
                "textual": "\"inspector\":inspector"
              }
            ],
            "textual": "(\"chloe\":taxpayer,\"inspector\":inspector):duty to pay"
          },
          false
        ],
        [
          {
            "fact-type": "duty to pay",
            "arguments": [
              {
                "fact-type": "taxpayer",
                "value": "bob",
                "textual": "\"bob\":taxpayer"
              },
              {
                "fact-type": "inspector",
                "value": "inspector",
                "textual": "\"inspector\":inspector"
              }
            ],
            "textual": "(\"bob\":taxpayer,\"inspector\":inspector):duty to pay"
          },
          false
        ],
        [
          {
            "fact-type": "duty to pay",
            "arguments": [
              {
                "fact-type": "taxpayer",
                "value": "alice",
                "textual": "\"alice\":taxpayer"
              },
              {
                "fact-type": "inspector",
                "value": "inspector",
                "textual": "\"inspector\":inspector"
              }
            ],
            "textual": "(\"alice\":taxpayer,\"inspector\":inspector):duty to pay"
          },
          false
        ]
      ]
    ],
    [
      2,
      [
        [
          {
            "fact-type": "duty to pay",
            "arguments": [
              {
                "fact-type": "taxpayer",
                "value": "chloe",
                "textual": "\"chloe\":taxpayer"
              },
              {
                "fact-type": "inspector",
                "value": "inspector",
                "textual": "\"inspector\":inspector"
              }
            ],
            "textual": "(\"chloe\":taxpayer,\"inspector\":inspector):duty to pay"
          },
          false
        ],
        [
          {
            "fact-type": "duty to pay",
            "arguments": [
              {
                "fact-type": "taxpayer",
                "value": "bob",
                "textual": "\"bob\":taxpayer"
              },
              {
                "fact-type": "inspector",
                "value": "inspector",
                "textual": "\"inspector\":inspector"
              }
            ],
            "textual": "(\"bob\":taxpayer,\"inspector\":inspector):duty to pay"
          },
          false
        ],
        [
          {
            "fact-type": "duty to pay",
            "arguments": [
              {
                "fact-type": "taxpayer",
                "value": "alice",
                "textual": "\"alice\":taxpayer"
              },
              {
                "fact-type": "inspector",
                "value": "inspector",
                "textual": "\"inspector\":inspector"
              }
            ],
            "textual": "(\"alice\":taxpayer,\"inspector\":inspector):duty to pay"
          },
          false
        ]
      ]
    ],
    [
      3,
      [
        [
          {
            "fact-type": "duty to pay",
            "arguments": [
              {
                "fact-type": "taxpayer",
                "value": "chloe",
                "textual": "\"chloe\":taxpayer"
              },
              {
                "fact-type": "inspector",
                "value": "inspector",
                "textual": "\"inspector\":inspector"
              }
            ],
            "textual": "(\"chloe\":taxpayer,\"inspector\":inspector):duty to pay"
          },
          false
        ],
        [
          {
            "fact-type": "duty to pay",
            "arguments": [
              {
                "fact-type": "taxpayer",
                "value": "bob",
                "textual": "\"bob\":taxpayer"
              },
              {
                "fact-type": "inspector",
                "value": "inspector",
                "textual": "\"inspector\":inspector"
              }
            ],
            "textual": "(\"bob\":taxpayer,\"inspector\":inspector):duty to pay"
          },
          false
        ],
        [
          {
            "fact-type": "duty to pay",
            "arguments": [
              {
                "fact-type": "taxpayer",
                "value": "alice",
                "textual": "\"alice\":taxpayer"
              },
              {
                "fact-type": "inspector",
                "value": "inspector",
                "textual": "\"inspector\":inspector"
              }
            ],
            "textual": "(\"alice\":taxpayer,\"inspector\":inspector):duty to pay"
          },
          false
        ]
      ]
    ]
  ]
}
